<?xml version="1.0" encoding="UTF-8" ?>
<testsuite tests="9" failures="0" name="BeadandoPageObjectTest" time="65.669" errors="0" skipped="0">
  <properties>
    <property name="java.runtime.name" value="OpenJDK Runtime Environment"/>
    <property name="java.vm.version" value="17.0.1+12"/>
    <property name="sun.boot.library.path" value="/usr/lib/jvm/java-17-openjdk/lib"/>
    <property name="maven.multiModuleProjectDirectory" value="/home/fanni/Documents/PPKE-ITK/10.felev/SW_Test_Automatization/Own_Repo/webui"/>
    <property name="java.vm.vendor" value="Oracle Corporation"/>
    <property name="java.vendor.url" value="https://openjdk.java.net/"/>
    <property name="guice.disable.misplaced.annotation.check" value="true"/>
    <property name="path.separator" value=":"/>
    <property name="java.vm.name" value="OpenJDK 64-Bit Server VM"/>
    <property name="user.country" value="US"/>
    <property name="sun.java.launcher" value="SUN_STANDARD"/>
    <property name="test" value="BeadandoPageObjectTest"/>
    <property name="java.vm.specification.name" value="Java Virtual Machine Specification"/>
    <property name="user.dir" value="/home/fanni/Documents/PPKE-ITK/10.felev/SW_Test_Automatization/Own_Repo/webui"/>
    <property name="java.vm.compressedOopsMode" value="32-bit"/>
    <property name="java.runtime.version" value="17.0.1+12"/>
    <property name="os.arch" value="amd64"/>
    <property name="java.io.tmpdir" value="/tmp"/>
    <property name="line.separator" value="
"/>
    <property name="java.vm.specification.vendor" value="Oracle Corporation"/>
    <property name="os.name" value="Linux"/>
    <property name="classworlds.conf" value="/opt/maven/bin/m2.conf"/>
    <property name="sun.jnu.encoding" value="UTF-8"/>
    <property name="java.library.path" value="/usr/java/packages/lib:/usr/lib64:/lib64:/lib:/usr/lib"/>
    <property name="maven.conf" value="/opt/maven/conf"/>
    <property name="jdk.debug" value="release"/>
    <property name="java.class.version" value="61.0"/>
    <property name="java.specification.name" value="Java Platform API Specification"/>
    <property name="sun.management.compiler" value="HotSpot 64-Bit Tiered Compilers"/>
    <property name="os.version" value="5.4.159-1-MANJARO"/>
    <property name="library.jansi.path" value="/opt/maven/lib/jansi-native"/>
    <property name="user.home" value="/home/fanni"/>
    <property name="user.timezone" value="Europe/Budapest"/>
    <property name="file.encoding" value="UTF-8"/>
    <property name="java.specification.version" value="17"/>
    <property name="user.name" value="fanni"/>
    <property name="java.class.path" value="/opt/maven/boot/plexus-classworlds-2.6.0.jar"/>
    <property name="java.vm.specification.version" value="17"/>
    <property name="sun.arch.data.model" value="64"/>
    <property name="sun.java.command" value="org.codehaus.plexus.classworlds.launcher.Launcher -Dtest=BeadandoPageObjectTest test"/>
    <property name="java.home" value="/usr/lib/jvm/java-17-openjdk"/>
    <property name="user.language" value="en"/>
    <property name="java.specification.vendor" value="Oracle Corporation"/>
    <property name="java.vm.info" value="mixed mode"/>
    <property name="java.version" value="17.0.1"/>
    <property name="native.encoding" value="UTF-8"/>
    <property name="java.vendor" value="N/A"/>
    <property name="sun.stderr.encoding" value="UTF-8"/>
    <property name="maven.home" value="/opt/maven"/>
    <property name="file.separator" value="/"/>
    <property name="java.version.date" value="2021-10-19"/>
    <property name="java.vendor.url.bug" value="https://bugreport.java.com/bugreport/"/>
    <property name="sun.io.unicode.encoding" value="UnicodeLittle"/>
    <property name="sun.cpu.endian" value="little"/>
    <property name="sun.stdout.encoding" value="UTF-8"/>
  </properties>
  <testcase classname="BeadandoPageObjectTest" name="testAuthorNumBooks(My Sister&apos;s Keeper, Jodi Picoult, 75) [0]" time="8.571"/>
  <testcase classname="BeadandoPageObjectTest" name="testAuthorNumBooks(A láthatatlan légió, Jenő Rejtő, 99) [1]" time="6.55"/>
  <testcase classname="BeadandoPageObjectTest" name="testAuthorNumBooks(Euqal Rites, Terry Pratchett, 398) [2]" time="6.968"/>
  <testcase classname="BeadandoPageObjectTest" name="testSearchTermContainedInTitle(Princess) [0]" time="5.411"/>
  <testcase classname="BeadandoPageObjectTest" name="testSearchTermContainedInTitle(Treason) [1]" time="5.216"/>
  <testcase classname="BeadandoPageObjectTest" name="testSearchTermContainedInTitle(Wuthering) [2]" time="5.69"/>
  <testcase classname="BeadandoPageObjectTest" name="testAuthorOfBook(princess diaries, meg cabot) [0]" time="8.8"/>
  <testcase classname="BeadandoPageObjectTest" name="testAuthorOfBook(harry potter and the prisoner of azkaban, j.k. rowling) [1]" time="10.336"/>
  <testcase classname="BeadandoPageObjectTest" name="testAuthorOfBook(ender&apos;s game, orson scott card) [2]" time="8.127"/>
</testsuite>