/home/fanni/Documents/PPKE-ITK/10.felev/SW_Test_Automatization/Own_Repo/webui/src/main/java/com/epam/university/pagemodels/pages/BookPage.java
/home/fanni/Documents/PPKE-ITK/10.felev/SW_Test_Automatization/Own_Repo/webui/src/main/java/com/epam/university/pagemodels/widgets/SearchWidget.java
/home/fanni/Documents/PPKE-ITK/10.felev/SW_Test_Automatization/Own_Repo/webui/src/main/java/com/epam/university/pagemodels/pages/AuthorPage.java
/home/fanni/Documents/PPKE-ITK/10.felev/SW_Test_Automatization/Own_Repo/webui/src/main/java/com/epam/university/pagemodels/pages/BasePage.java
/home/fanni/Documents/PPKE-ITK/10.felev/SW_Test_Automatization/Own_Repo/webui/src/main/java/com/epam/university/pagemodels/pages/SearchBookResultsPage.java
